%TF.GenerationSoftware,KiCad,Pcbnew,6.0.5+dfsg-1*%
%TF.CreationDate,2022-06-21T13:11:55+02:00*%
%TF.ProjectId,diy_7seg_RGBpanel,6469795f-3773-4656-975f-52474270616e,rev?*%
%TF.SameCoordinates,Original*%
%TF.FileFunction,Legend,Bot*%
%TF.FilePolarity,Positive*%
%FSLAX46Y46*%
G04 Gerber Fmt 4.6, Leading zero omitted, Abs format (unit mm)*
G04 Created by KiCad (PCBNEW 6.0.5+dfsg-1) date 2022-06-21 13:11:55*
%MOMM*%
%LPD*%
G01*
G04 APERTURE LIST*
%ADD10C,0.150000*%
%ADD11C,0.120000*%
G04 APERTURE END LIST*
D10*
X145000000Y-119000000D02*
X145000000Y-122000000D01*
X151000000Y-119000000D02*
X151000000Y-122000000D01*
%TO.C,R76*%
X153642857Y-121452380D02*
X153976190Y-120976190D01*
X154214285Y-121452380D02*
X154214285Y-120452380D01*
X153833333Y-120452380D01*
X153738095Y-120500000D01*
X153690476Y-120547619D01*
X153642857Y-120642857D01*
X153642857Y-120785714D01*
X153690476Y-120880952D01*
X153738095Y-120928571D01*
X153833333Y-120976190D01*
X154214285Y-120976190D01*
X153309523Y-120452380D02*
X152642857Y-120452380D01*
X153071428Y-121452380D01*
X151833333Y-120452380D02*
X152023809Y-120452380D01*
X152119047Y-120500000D01*
X152166666Y-120547619D01*
X152261904Y-120690476D01*
X152309523Y-120880952D01*
X152309523Y-121261904D01*
X152261904Y-121357142D01*
X152214285Y-121404761D01*
X152119047Y-121452380D01*
X151928571Y-121452380D01*
X151833333Y-121404761D01*
X151785714Y-121357142D01*
X151738095Y-121261904D01*
X151738095Y-121023809D01*
X151785714Y-120928571D01*
X151833333Y-120880952D01*
X151928571Y-120833333D01*
X152119047Y-120833333D01*
X152214285Y-120880952D01*
X152261904Y-120928571D01*
X152309523Y-121023809D01*
%TO.C,R75*%
X151642857Y-118452380D02*
X151976190Y-117976190D01*
X152214285Y-118452380D02*
X152214285Y-117452380D01*
X151833333Y-117452380D01*
X151738095Y-117500000D01*
X151690476Y-117547619D01*
X151642857Y-117642857D01*
X151642857Y-117785714D01*
X151690476Y-117880952D01*
X151738095Y-117928571D01*
X151833333Y-117976190D01*
X152214285Y-117976190D01*
X151309523Y-117452380D02*
X150642857Y-117452380D01*
X151071428Y-118452380D01*
X149785714Y-117452380D02*
X150261904Y-117452380D01*
X150309523Y-117928571D01*
X150261904Y-117880952D01*
X150166666Y-117833333D01*
X149928571Y-117833333D01*
X149833333Y-117880952D01*
X149785714Y-117928571D01*
X149738095Y-118023809D01*
X149738095Y-118261904D01*
X149785714Y-118357142D01*
X149833333Y-118404761D01*
X149928571Y-118452380D01*
X150166666Y-118452380D01*
X150261904Y-118404761D01*
X150309523Y-118357142D01*
%TO.C,R74*%
X148642857Y-121452380D02*
X148976190Y-120976190D01*
X149214285Y-121452380D02*
X149214285Y-120452380D01*
X148833333Y-120452380D01*
X148738095Y-120500000D01*
X148690476Y-120547619D01*
X148642857Y-120642857D01*
X148642857Y-120785714D01*
X148690476Y-120880952D01*
X148738095Y-120928571D01*
X148833333Y-120976190D01*
X149214285Y-120976190D01*
X148309523Y-120452380D02*
X147642857Y-120452380D01*
X148071428Y-121452380D01*
X146833333Y-120785714D02*
X146833333Y-121452380D01*
X147071428Y-120404761D02*
X147309523Y-121119047D01*
X146690476Y-121119047D01*
%TO.C,R73*%
X145642857Y-118452380D02*
X145976190Y-117976190D01*
X146214285Y-118452380D02*
X146214285Y-117452380D01*
X145833333Y-117452380D01*
X145738095Y-117500000D01*
X145690476Y-117547619D01*
X145642857Y-117642857D01*
X145642857Y-117785714D01*
X145690476Y-117880952D01*
X145738095Y-117928571D01*
X145833333Y-117976190D01*
X146214285Y-117976190D01*
X145309523Y-117452380D02*
X144642857Y-117452380D01*
X145071428Y-118452380D01*
X144357142Y-117452380D02*
X143738095Y-117452380D01*
X144071428Y-117833333D01*
X143928571Y-117833333D01*
X143833333Y-117880952D01*
X143785714Y-117928571D01*
X143738095Y-118023809D01*
X143738095Y-118261904D01*
X143785714Y-118357142D01*
X143833333Y-118404761D01*
X143928571Y-118452380D01*
X144214285Y-118452380D01*
X144309523Y-118404761D01*
X144357142Y-118357142D01*
%TO.C,R72*%
X143642857Y-121452380D02*
X143976190Y-120976190D01*
X144214285Y-121452380D02*
X144214285Y-120452380D01*
X143833333Y-120452380D01*
X143738095Y-120500000D01*
X143690476Y-120547619D01*
X143642857Y-120642857D01*
X143642857Y-120785714D01*
X143690476Y-120880952D01*
X143738095Y-120928571D01*
X143833333Y-120976190D01*
X144214285Y-120976190D01*
X143309523Y-120452380D02*
X142642857Y-120452380D01*
X143071428Y-121452380D01*
X142309523Y-120547619D02*
X142261904Y-120500000D01*
X142166666Y-120452380D01*
X141928571Y-120452380D01*
X141833333Y-120500000D01*
X141785714Y-120547619D01*
X141738095Y-120642857D01*
X141738095Y-120738095D01*
X141785714Y-120880952D01*
X142357142Y-121452380D01*
X141738095Y-121452380D01*
%TO.C,R71*%
X135642857Y-116452380D02*
X135976190Y-115976190D01*
X136214285Y-116452380D02*
X136214285Y-115452380D01*
X135833333Y-115452380D01*
X135738095Y-115500000D01*
X135690476Y-115547619D01*
X135642857Y-115642857D01*
X135642857Y-115785714D01*
X135690476Y-115880952D01*
X135738095Y-115928571D01*
X135833333Y-115976190D01*
X136214285Y-115976190D01*
X135309523Y-115452380D02*
X134642857Y-115452380D01*
X135071428Y-116452380D01*
X133738095Y-116452380D02*
X134309523Y-116452380D01*
X134023809Y-116452380D02*
X134023809Y-115452380D01*
X134119047Y-115595238D01*
X134214285Y-115690476D01*
X134309523Y-115738095D01*
%TO.C,J71*%
X137809523Y-128452380D02*
X137809523Y-129166666D01*
X137857142Y-129309523D01*
X137952380Y-129404761D01*
X138095238Y-129452380D01*
X138190476Y-129452380D01*
X137428571Y-128452380D02*
X136761904Y-128452380D01*
X137190476Y-129452380D01*
X135857142Y-129452380D02*
X136428571Y-129452380D01*
X136142857Y-129452380D02*
X136142857Y-128452380D01*
X136238095Y-128595238D01*
X136333333Y-128690476D01*
X136428571Y-128738095D01*
%TO.C,C74*%
X141642857Y-127357142D02*
X141690476Y-127404761D01*
X141833333Y-127452380D01*
X141928571Y-127452380D01*
X142071428Y-127404761D01*
X142166666Y-127309523D01*
X142214285Y-127214285D01*
X142261904Y-127023809D01*
X142261904Y-126880952D01*
X142214285Y-126690476D01*
X142166666Y-126595238D01*
X142071428Y-126500000D01*
X141928571Y-126452380D01*
X141833333Y-126452380D01*
X141690476Y-126500000D01*
X141642857Y-126547619D01*
X141309523Y-126452380D02*
X140642857Y-126452380D01*
X141071428Y-127452380D01*
X139833333Y-126785714D02*
X139833333Y-127452380D01*
X140071428Y-126404761D02*
X140309523Y-127119047D01*
X139690476Y-127119047D01*
%TO.C,C73*%
X141642857Y-117357142D02*
X141690476Y-117404761D01*
X141833333Y-117452380D01*
X141928571Y-117452380D01*
X142071428Y-117404761D01*
X142166666Y-117309523D01*
X142214285Y-117214285D01*
X142261904Y-117023809D01*
X142261904Y-116880952D01*
X142214285Y-116690476D01*
X142166666Y-116595238D01*
X142071428Y-116500000D01*
X141928571Y-116452380D01*
X141833333Y-116452380D01*
X141690476Y-116500000D01*
X141642857Y-116547619D01*
X141309523Y-116452380D02*
X140642857Y-116452380D01*
X141071428Y-117452380D01*
X140357142Y-116452380D02*
X139738095Y-116452380D01*
X140071428Y-116833333D01*
X139928571Y-116833333D01*
X139833333Y-116880952D01*
X139785714Y-116928571D01*
X139738095Y-117023809D01*
X139738095Y-117261904D01*
X139785714Y-117357142D01*
X139833333Y-117404761D01*
X139928571Y-117452380D01*
X140214285Y-117452380D01*
X140309523Y-117404761D01*
X140357142Y-117357142D01*
%TO.C,C72*%
X159642857Y-123357142D02*
X159690476Y-123404761D01*
X159833333Y-123452380D01*
X159928571Y-123452380D01*
X160071428Y-123404761D01*
X160166666Y-123309523D01*
X160214285Y-123214285D01*
X160261904Y-123023809D01*
X160261904Y-122880952D01*
X160214285Y-122690476D01*
X160166666Y-122595238D01*
X160071428Y-122500000D01*
X159928571Y-122452380D01*
X159833333Y-122452380D01*
X159690476Y-122500000D01*
X159642857Y-122547619D01*
X159309523Y-122452380D02*
X158642857Y-122452380D01*
X159071428Y-123452380D01*
X158309523Y-122547619D02*
X158261904Y-122500000D01*
X158166666Y-122452380D01*
X157928571Y-122452380D01*
X157833333Y-122500000D01*
X157785714Y-122547619D01*
X157738095Y-122642857D01*
X157738095Y-122738095D01*
X157785714Y-122880952D01*
X158357142Y-123452380D01*
X157738095Y-123452380D01*
%TO.C,C71*%
X132642857Y-123357142D02*
X132690476Y-123404761D01*
X132833333Y-123452380D01*
X132928571Y-123452380D01*
X133071428Y-123404761D01*
X133166666Y-123309523D01*
X133214285Y-123214285D01*
X133261904Y-123023809D01*
X133261904Y-122880952D01*
X133214285Y-122690476D01*
X133166666Y-122595238D01*
X133071428Y-122500000D01*
X132928571Y-122452380D01*
X132833333Y-122452380D01*
X132690476Y-122500000D01*
X132642857Y-122547619D01*
X132309523Y-122452380D02*
X131642857Y-122452380D01*
X132071428Y-123452380D01*
X130738095Y-123452380D02*
X131309523Y-123452380D01*
X131023809Y-123452380D02*
X131023809Y-122452380D01*
X131119047Y-122595238D01*
X131214285Y-122690476D01*
X131309523Y-122738095D01*
D11*
%TO.C,R76*%
X152612830Y-123871136D02*
X152612830Y-124325264D01*
X154082830Y-123871136D02*
X154082830Y-124325264D01*
%TO.C,R75*%
X151516064Y-124325264D02*
X151516064Y-123871136D01*
X150046064Y-124325264D02*
X150046064Y-123871136D01*
%TO.C,R74*%
X147479298Y-123871136D02*
X147479298Y-124325264D01*
X148949298Y-123871136D02*
X148949298Y-124325264D01*
%TO.C,R73*%
X144912532Y-123871136D02*
X144912532Y-124325264D01*
X146382532Y-123871136D02*
X146382532Y-124325264D01*
%TO.C,R72*%
X142345766Y-123871136D02*
X142345766Y-124325264D01*
X143815766Y-123871136D02*
X143815766Y-124325264D01*
%TO.C,R71*%
X137017736Y-118788000D02*
X137471864Y-118788000D01*
X137017736Y-117318000D02*
X137471864Y-117318000D01*
%TO.C,J71*%
X139820600Y-133481400D02*
X139820600Y-139481400D01*
X155820600Y-139481400D02*
X155820600Y-133481400D01*
X140240600Y-133481400D02*
X140240600Y-139481400D01*
X140120600Y-133481400D02*
X140120600Y-139481400D01*
X144900600Y-133481400D02*
X144900600Y-139481400D01*
X153280600Y-130424329D02*
X153280600Y-130821400D01*
X155060600Y-133481400D02*
X155060600Y-139481400D01*
X147440600Y-133481400D02*
X147440600Y-139481400D01*
X147440600Y-130424329D02*
X147440600Y-130821400D01*
X140200600Y-128111400D02*
X138930600Y-128111400D01*
X142360600Y-133481400D02*
X142360600Y-139481400D01*
X143120600Y-130424329D02*
X143120600Y-130821400D01*
X149980600Y-130424329D02*
X149980600Y-130821400D01*
X149980600Y-139481400D02*
X150740600Y-139481400D01*
X149090600Y-130821400D02*
X149090600Y-133481400D01*
X153280600Y-139481400D02*
X153280600Y-133481400D01*
X144900600Y-139481400D02*
X145660600Y-139481400D01*
X142360600Y-139481400D02*
X143120600Y-139481400D01*
X154170600Y-130821400D02*
X154170600Y-133481400D01*
X149980600Y-133481400D02*
X149980600Y-139481400D01*
X138930600Y-128111400D02*
X138930600Y-129381400D01*
X150740600Y-139481400D02*
X150740600Y-133481400D01*
X152520600Y-133481400D02*
X152520600Y-139481400D01*
X156770600Y-133481400D02*
X138870600Y-133481400D01*
X155820600Y-130424329D02*
X155820600Y-130821400D01*
X148200600Y-139481400D02*
X148200600Y-133481400D01*
X140000600Y-133481400D02*
X140000600Y-139481400D01*
X155060600Y-139481400D02*
X155820600Y-139481400D01*
X144900600Y-130424329D02*
X144900600Y-130821400D01*
X152520600Y-130424329D02*
X152520600Y-130821400D01*
X148200600Y-130424329D02*
X148200600Y-130821400D01*
X138870600Y-133481400D02*
X138870600Y-130821400D01*
X152520600Y-139481400D02*
X153280600Y-139481400D01*
X140580600Y-139481400D02*
X140580600Y-133481400D01*
X139820600Y-130491400D02*
X139820600Y-130821400D01*
X150740600Y-130424329D02*
X150740600Y-130821400D01*
X140480600Y-133481400D02*
X140480600Y-139481400D01*
X138870600Y-130821400D02*
X156770600Y-130821400D01*
X156770600Y-130821400D02*
X156770600Y-133481400D01*
X151630600Y-130821400D02*
X151630600Y-133481400D01*
X140360600Y-133481400D02*
X140360600Y-139481400D01*
X144010600Y-130821400D02*
X144010600Y-133481400D01*
X143120600Y-139481400D02*
X143120600Y-133481400D01*
X145660600Y-130424329D02*
X145660600Y-130821400D01*
X142360600Y-130424329D02*
X142360600Y-130821400D01*
X145660600Y-139481400D02*
X145660600Y-133481400D01*
X155060600Y-130424329D02*
X155060600Y-130821400D01*
X139880600Y-133481400D02*
X139880600Y-139481400D01*
X139820600Y-139481400D02*
X140580600Y-139481400D01*
X140580600Y-130491400D02*
X140580600Y-130821400D01*
X147440600Y-139481400D02*
X148200600Y-139481400D01*
X146550600Y-130821400D02*
X146550600Y-133481400D01*
X141470600Y-130821400D02*
X141470600Y-133481400D01*
%TO.C,C74*%
X140224000Y-124244467D02*
X140224000Y-123951933D01*
X141244000Y-124244467D02*
X141244000Y-123951933D01*
%TO.C,C73*%
X140224000Y-119709033D02*
X140224000Y-120001567D01*
X141244000Y-119709033D02*
X141244000Y-120001567D01*
%TO.C,C72*%
X156204600Y-123951933D02*
X156204600Y-124244467D01*
X155184600Y-123951933D02*
X155184600Y-124244467D01*
%TO.C,C71*%
X137636963Y-125618200D02*
X138701400Y-124553763D01*
X134181400Y-121098200D02*
X135381400Y-121098200D01*
X138001400Y-126358200D02*
X138001400Y-125858200D01*
X134181400Y-124553763D02*
X134181400Y-121098200D01*
X138701400Y-124553763D02*
X138701400Y-121098200D01*
X138701400Y-121098200D02*
X137501400Y-121098200D01*
X137636963Y-125618200D02*
X137501400Y-125618200D01*
X135245837Y-125618200D02*
X135381400Y-125618200D01*
X135245837Y-125618200D02*
X134181400Y-124553763D01*
X138251400Y-126108200D02*
X137751400Y-126108200D01*
%TD*%
M02*
