%TF.GenerationSoftware,KiCad,Pcbnew,6.0.5+dfsg-1*%
%TF.CreationDate,2022-06-21T13:11:55+02:00*%
%TF.ProjectId,diy_7seg_RGBpanel,6469795f-3773-4656-975f-52474270616e,rev?*%
%TF.SameCoordinates,Original*%
%TF.FileFunction,Soldermask,Bot*%
%TF.FilePolarity,Negative*%
%FSLAX46Y46*%
G04 Gerber Fmt 4.6, Leading zero omitted, Abs format (unit mm)*
G04 Created by KiCad (PCBNEW 6.0.5+dfsg-1) date 2022-06-21 13:11:55*
%MOMM*%
%LPD*%
G01*
G04 APERTURE LIST*
G04 Aperture macros list*
%AMRoundRect*
0 Rectangle with rounded corners*
0 $1 Rounding radius*
0 $2 $3 $4 $5 $6 $7 $8 $9 X,Y pos of 4 corners*
0 Add a 4 corners polygon primitive as box body*
4,1,4,$2,$3,$4,$5,$6,$7,$8,$9,$2,$3,0*
0 Add four circle primitives for the rounded corners*
1,1,$1+$1,$2,$3*
1,1,$1+$1,$4,$5*
1,1,$1+$1,$6,$7*
1,1,$1+$1,$8,$9*
0 Add four rect primitives between the rounded corners*
20,1,$1+$1,$2,$3,$4,$5,0*
20,1,$1+$1,$4,$5,$6,$7,0*
20,1,$1+$1,$6,$7,$8,$9,0*
20,1,$1+$1,$8,$9,$2,$3,0*%
G04 Aperture macros list end*
%ADD10C,2.100000*%
%ADD11RoundRect,0.250000X-0.450000X0.350000X-0.450000X-0.350000X0.450000X-0.350000X0.450000X0.350000X0*%
%ADD12RoundRect,0.250000X0.450000X-0.350000X0.450000X0.350000X-0.450000X0.350000X-0.450000X-0.350000X0*%
%ADD13RoundRect,0.250000X-0.350000X-0.450000X0.350000X-0.450000X0.350000X0.450000X-0.350000X0.450000X0*%
%ADD14R,1.700000X1.700000*%
%ADD15O,1.700000X1.700000*%
%ADD16RoundRect,0.237500X0.237500X-0.300000X0.237500X0.300000X-0.237500X0.300000X-0.237500X-0.300000X0*%
%ADD17RoundRect,0.237500X-0.237500X0.300000X-0.237500X-0.300000X0.237500X-0.300000X0.237500X0.300000X0*%
%ADD18RoundRect,0.250000X0.550000X-1.050000X0.550000X1.050000X-0.550000X1.050000X-0.550000X-1.050000X0*%
G04 APERTURE END LIST*
D10*
%TO.C,REF\u002A\u002A*%
X205000000Y-85000000D03*
%TD*%
%TO.C,REF\u002A\u002A*%
X205000000Y-129000000D03*
%TD*%
%TO.C,REF\u002A\u002A*%
X105000000Y-129000000D03*
%TD*%
%TO.C,REF\u002A\u002A*%
X105000000Y-85000000D03*
%TD*%
D11*
%TO.C,R76*%
X153347830Y-123098200D03*
X153347830Y-125098200D03*
%TD*%
D12*
%TO.C,R75*%
X150781064Y-125098200D03*
X150781064Y-123098200D03*
%TD*%
D11*
%TO.C,R74*%
X148214298Y-123098200D03*
X148214298Y-125098200D03*
%TD*%
%TO.C,R73*%
X145647532Y-123098200D03*
X145647532Y-125098200D03*
%TD*%
%TO.C,R72*%
X143080766Y-123098200D03*
X143080766Y-125098200D03*
%TD*%
D13*
%TO.C,R71*%
X136244800Y-118053000D03*
X138244800Y-118053000D03*
%TD*%
D14*
%TO.C,J71*%
X140200600Y-129381400D03*
D15*
X142740600Y-129381400D03*
X145280600Y-129381400D03*
X147820600Y-129381400D03*
X150360600Y-129381400D03*
X152900600Y-129381400D03*
X155440600Y-129381400D03*
%TD*%
D16*
%TO.C,C74*%
X140734000Y-123235700D03*
X140734000Y-124960700D03*
%TD*%
D17*
%TO.C,C73*%
X140734000Y-118992800D03*
X140734000Y-120717800D03*
%TD*%
%TO.C,C72*%
X155694600Y-124960700D03*
X155694600Y-123235700D03*
%TD*%
D18*
%TO.C,C71*%
X136441400Y-125158200D03*
X136441400Y-121558200D03*
%TD*%
M02*
